{
    "HTTP" : {
        "enabled" : true,
        "port"    : 4900
    },

    "HTTPS" : {
        "enabled"  : false,
        "port"     : 4901,
        "certfile" : "Put SSL certificate file here before enabling",
        "keyfile"  : "Put private key file here before enabling"
    },

    "TCP" : {
        "enabled" : true,
        "port"    : 4902
    },

    "ThreadsPerRNG" : 1,
    "RngFiles" : [
        "/dev/arbitrand_serve0"
    ]
}
